{
	"appId": "com.example.app",
	"appName": "mern-auth-capacitor",
	"bundledWebRuntime": false,
	"npmClient": "npm",
	"webDir": "client/public",
	"server": {
		"url": "http://192.168.1.8:3000/",
		"hostname": "localhost",
		"allowNavigation": [
			"parchment.com",
			"http://192.168.1.8:3000/",
			"http://localhost:3000/"
		]
	},
	"cordova": {}
}
